{
  "presets": [
    "@babel/preset-env",
    [
      "@babel/preset-react",
      {
        "runtime": "automatic"
      }
    ]
  ],
  "plugins": [
    [
      "@babel/plugin-transform-runtime",
      {
        "useESModules": true,
        "regenerator": false
      }
    ]
  ],
  "env": {
    "test": {
      "plugins": ["transform-require-context"],
      "presets": [
        [
          "@babel/preset-env",
          {
            "targets": "current node"
          }
        ]
      ]
    }
  }
}
